[
    {
        "role":"Sourcing Specialist",
        "company":"Gshopper",
        "summary":"Merchandising, Suppliers and brands portfolio Management, Agile Sourcing",
        "range":"Dec 2017 - Present"
    },
    {
        "role":"Business Development Manager",
        "company":"Sourcepro GmbH",
        "summary":"Enabled a collaborative FMCG supply chain, developed and maintained a strategic supply landscape rendering quality, availability and a gross profit margin at a 5% approximation.",
        "range":"Apr 2017 - Nov 2017"
    },
    {
        "role":"Purchasing Manager",
        "company":"E-TAO Im -und Export GmbH",
        "summary":"Developed a more diversified and resourceful upstream suppliers portfolio for some strategically important FMCG brands",
        "range":"Jan 2017 - Jun 2017"
    }
]
